{
    "branch_radius": {
        "value": "2147483647",
        "description": "Radius to include branches within (in meters)"
    },
    "version": {
        "value": "1.0.0.15",
        "description": "MobileTicket version"
    },
    "customer_feedback": {
        "value": "",
        "description": "URL to redirect to when visit is ended."
    },
    "ga_track_id": {
        "value":"",
        "description": "Google Analytic Track-ID"
    },
    "notification_sound": {
        "value":"YourTurn.wav",
        "description": "Sound file use for notification"
    },
    "service_fetch_interval":{
        "value":"15",
        "description": "The interval (in seconds) at which service information is refreshed periodically"
    },
     "service_screen_timeout":{
        "value":"1",
        "description": "The time duration (in minutes) which the app will stay in services screen without creating a ticket"
    },
    "branch_open_hours":{
        "value" : [     
           { "translation_key":"open_hours.week_day1", "from":"6:00", "to": "22:00" ,"description":"monday", "display_from":"7:00", "display_to": "18:00", "show":"true" } ,
           { "translation_key":"open_hours.week_day2", "from":"6:00", "to": "22:00" ,"description":"tuesday", "display_from":"7:00", "display_to": "18:00", "show":"true" } ,
           { "translation_key":"open_hours.week_day3", "from":"6:00", "to": "22:00" ,"description":"wednesday", "display_from":"7:00", "display_to": "18:00", "show":"true" } ,
           { "translation_key":"open_hours.week_day4", "from":"6:00", "to": "22:00" ,"description":"thursday", "display_from":"7:00", "display_to": "18:00", "show":"true" } ,
           { "translation_key":"open_hours.week_day5", "from":"6:00", "to": "22:00" ,"description":"friday", "display_from":"7:00", "display_to": "18:00", "show":"true" } ,
           { "translation_key":"open_hours.week_day6", "from":"6:00", "to": "22:00" ,"description":"saturday", "display_from":"7:00", "display_to": "18:00", "show":"true" } ,
           { "translation_key":"open_hours.week_day7", "from":"6:00", "to": "22:00" ,"description":"sunday", "display_from":"7:00", "display_to": "18:00", "show":"true" }
        ],
        "description": "Open hours of all branches in general"
    },
    "branch_groups":{
        "value":[
          {"groupId" : 1, "title":"WYDZIAŁ ZEZWOLEŃ ZAGRANICZNYCH", "isDefaultCollap":true, "serviceIds":[1,2,3]},
          {"groupId" : 2, "title":"LICENCJE","isDefaultCollap":true, "serviceIds":[4,5,6]},
          {"groupId" : 3, "title":"ŚWIADECTWA", "isDefaultCollap":true, "serviceIds":[7,8,9]}
        ]
    }
}
